{
	"info": {
		"_postman_id": "453badd0-ecd0-46c4-81b4-f68891ff3644",
		"name": "rainbowconnection.me API",
		"description": "# Introduction\nThis API returns data from a backend server about members of congress, bills, and issues affecting LGBT policy and is used to dynamically display information on rainbowconnection.me\n\n# Overview\n\nSources:\nWikipedia API\nPropublica API (bills and congress)\n\nThe models in this API are congress members, bills, and LGBT issues\n\n\n# Error Codes\n200 - OK, the request has succeded  <br>\n\n404 - Error, the server can't find the object you're trying to find  <br>\n\n500 - Internal Server Error  <br>\n\n",
		"schema": "https://schema.getpostman.com/json/collection/v2.1.0/collection.json"
	},
	"item": [
		{
			"name": "Congress",
			"item": [
				{
					"name": "api.rainbowconnection.me/v1/congress/all",
					"event": [
						{
							"listen": "test",
							"script": {
								"id": "534c1bd4-9516-4fe3-91f2-a7c8c992958d",
								"exec": [
									"",
									"pm.test(\"first entry okay\", function () {",
									"    pm.expect(pm.response.json()[0].chamber).to.equal(\"House\");",
									"    pm.expect(pm.response.json()[0].committees.toString()).to.equal([",
									"            \"Committee on Appropriations\"].toString());",
									"    pm.expect(pm.response.json()[0].connections.toString()).to.equal([",
									"            \"S.411\",",
									"            \"False\",",
									"            \"default\",",
									"            \"Hate Crimes\",",
									"            \"False\",",
									"            \"http://blog.nohatespeechmovement.org/wp-content/uploads/2014/07/half-vic-lgbt.jpg\"",
									"        ].toString());",
									"    pm.expect(pm.response.json()[0].contact).to.equal(null);",
									"    pm.expect(pm.response.json()[0].facebook).to.equal(\"RepDavidYoung\");",
									"    pm.expect(pm.response.json()[0].fax).to.equal(null);",
									"    pm.expect(pm.response.json()[0].icon).to.equal(\"https://raw.githubusercontent.com/unitedstates/images/gh-pages/congress/225x275/Y000066.jpg\");",
									"    pm.expect(pm.response.json()[0].linkfacebook).to.equal(\"https://www.facebook.com/RepDavidYoung\");",
									"    pm.expect(pm.response.json()[0].linksenate).to.equal(null);",
									"    pm.expect(pm.response.json()[0].linktwitter).to.equal(\"https://twitter.com/RepDavidYoung?lang=en\");",
									"    pm.expect(pm.response.json()[0].memberid).to.equal(\"Y000066\");",
									"    pm.expect(pm.response.json()[0].name).to.equal(\"David Young\");",
									"    pm.expect(pm.response.json()[0].office).to.equal(\"240 Cannon House Office Building\");",
									"    pm.expect(pm.response.json()[0].party).to.equal(\"Republican\");",
									"    pm.expect(pm.response.json()[0].phone).to.equal(\"202-225-5476\");",
									"    pm.expect(pm.response.json()[0].state).to.equal(\"IA\");",
									"    pm.expect(pm.response.json()[0].termend).to.equal(\"2019\");",
									"    pm.expect(pm.response.json()[0].title).to.equal(\"Representative\");",
									"    pm.expect(pm.response.json()[0].twitter).to.equal(\"RepDavidYoung\");",
									"});",
									"",
									"pm.test(\"check num results\", function () {",
									"    pm.expect(pm.response.json()).to.have.lengthOf(561);",
									"});"
								],
								"type": "text/javascript"
							}
						}
					],
					"protocolProfileBehavior": {
						"disableBodyPruning": true
					},
					"request": {
						"method": "GET",
						"header": [],
						"body": {
							"mode": "raw",
							"raw": ""
						},
						"url": {
							"raw": "https://api.rainbowconnection.me/v1/congress/all",
							"protocol": "https",
							"host": [
								"api",
								"rainbowconnection",
								"me"
							],
							"path": [
								"v1",
								"congress",
								"all"
							]
						},
						"description": "Returns a JSON string with all congress members "
					},
					"response": [
						{
							"name": "Default",
							"originalRequest": {
								"method": "GET",
								"header": [],
								"body": {
									"mode": "raw",
									"raw": ""
								},
								"url": {
									"raw": "https://api.rainbowconnection.me/v1/congress",
									"protocol": "https",
									"host": [
										"api",
										"rainbowconnection",
										"me"
									],
									"path": [
										"v1",
										"congress"
									]
								}
							},
							"code": 200,
							"_postman_previewlanguage": "json",
							"header": null,
							"cookie": [],
							"body": "[\n\t{\n\t\tcongress_member_dict_1,\n\t\t...\n\t}\n]"
						}
					]
				},
				{
					"name": "api.rainbowconnection.me/v1/congress",
					"event": [
						{
							"listen": "test",
							"script": {
								"id": "be08cf95-d25f-4591-a70c-041697fc7d28",
								"exec": [
									"pm.test(\"first entry okay\", function() {",
									"    data = pm.response.json()[0];",
									"",
									"    pm.expect(data.chamber).to.equal(\"Senate\");",
									"    pm.expect(data.committees.toString()).to.equal([",
									"        \"Committee on Appropriations\",",
									"        \"Committee on Commerce, Science, and Transportation\",",
									"        \"Committee on Health, Education, Labor, and Pensions\"",
									"    ].toString());",
									"",
									"    pm.expect(data.connections.toString()).to.equal([",
									"            \"S.411\",",
									"            \"True\",",
									"            \"default\",",
									"            \"Hate Crimes\",",
									"            \"True\",",
									"            \"http://blog.nohatespeechmovement.org/wp-content/uploads/2014/07/half-vic-lgbt.jpg\"",
									"        ].toString());",
									"    pm.expect(pm.response.json()[0].contact).to.equal(\"https://www.baldwin.senate.gov/feedback\");",
									"    pm.expect(pm.response.json()[0].facebook).to.equal(\"senatortammybaldwin\");",
									"    pm.expect(data.fax).to.equal(\"202-225-6942\");",
									"    pm.expect(pm.response.json()[0].icon).to.equal(\"https://raw.githubusercontent.com/unitedstates/images/gh-pages/congress/225x275/B001230.jpg\");",
									"    pm.expect(data.linkfacebook).to.equal(\"https://www.facebook.com/senatortammybaldwin\");",
									"    pm.expect(data.linksenate).to.equal(\"https://www.baldwin.senate.gov\");",
									"    pm.expect(data.linktwitter).to.equal(\"https://twitter.com/SenatorBaldwin?lang=en\");",
									"    pm.expect(data.memberid).to.equal(\"B001230\");",
									"    pm.expect(data.name).to.equal(\"Tammy Baldwin\");",
									"    pm.expect(data.office).to.equal(\"709 Hart\");",
									"    pm.expect(data.party).to.equal(\"Democrat\");",
									"    pm.expect(data.phone).to.equal(\"202-224-5653\");",
									"    pm.expect(data.state).to.equal(\"WI\");",
									"    pm.expect(data.termend).to.equal(\"2019\");",
									"    pm.expect(data.title).to.equal(\"Senator, 1st Class\");",
									"    pm.expect(data.twitter).to.equal(\"SenatorBaldwin\");",
									"    ",
									"    //pm.expect(data.map).to.equal(\"https://maps.googleapis.com/maps/api/staticmap?center=WI&zoom=5&size=600x300&maptype=roadmap&markers=color:blue%7Clabel:S%7CWI&key=AIzaSyDkjJLWEtXMs8dSDfEMGUHyXh1a5GMs0d0\");",
									"});",
									"",
									"pm.test(\"check num results\", function() {",
									"    pm.expect(pm.response.json()).to.have.lengthOf(1);",
									"});"
								],
								"type": "text/javascript"
							}
						}
					],
					"request": {
						"method": "GET",
						"header": [],
						"body": {
							"mode": "raw",
							"raw": ""
						},
						"url": {
							"raw": "https://api.rainbowconnection.me/v1/congress?name=Tammy%20Baldwin",
							"protocol": "https",
							"host": [
								"api",
								"rainbowconnection",
								"me"
							],
							"path": [
								"v1",
								"congress"
							],
							"query": [
								{
									"key": "name",
									"value": "Tammy%20Baldwin"
								}
							]
						},
						"description": "Returns a JSON string of one member of congress specified by name = <member name>\n\nIf no name is specified, it returns all congress members"
					},
					"response": [
						{
							"name": "Default",
							"originalRequest": {
								"method": "GET",
								"header": [],
								"body": {
									"mode": "raw",
									"raw": ""
								},
								"url": {
									"raw": "https://api.rainbowconnection.me/v1/congress/name=<name>",
									"protocol": "https",
									"host": [
										"api",
										"rainbowconnection",
										"me"
									],
									"path": [
										"v1",
										"congress",
										"name=<name>"
									]
								}
							},
							"_postman_previewlanguage": "json",
							"header": null,
							"cookie": [],
							"body": "{\n        \"chamber\": string,\n        \"committees\": string[]\n        \"connections\": string[],\n        \"contact\": string,\n        \"facebook\": string,\n        \"fax\": string,\n        \"icon\": string,\n        \"linkfacebook\": string,\n        \"linktwitter\": string,\n        \"map\": string,\n        \"memberid\": string,\n        \"name\": string,\n        \"office\": string,\n        \"party\": string,\n        \"phone\": string,\n        \"linksenate\": string,\n        \"state\": string,\n        \"termend\": string,\n        \"title\": string,\n        \"twitter\": string\n    }"
						}
					]
				},
				{
					"name": "api.rainbowconnection.me/v1/congress/search",
					"event": [
						{
							"listen": "test",
							"script": {
								"id": "1238b6a2-0420-4a2c-9ac7-750cce6b808c",
								"exec": [
									"pm.test(\"first entry okay\", function() {",
									"    data = pm.response.json()[0];",
									"",
									"    pm.expect(data.chamber).to.equal(\"Senate\");",
									"    pm.expect(data.committees.toString()).to.equal([",
									"        \"Joint Economic Committee\",",
									"        \"Committee on Armed Services\",",
									"        \"Committee on Commerce, Science, and Transportation\",",
									"        \"Committee on the Judiciary\",",
									"        \"Committee on Rules and Administration\"",
									"    ].toString());",
									"",
									"    pm.expect(data.connections.toString()).to.equal([",
									"            \"S.411\",",
									"            \"False\",",
									"            \"default\",",
									"            \"Hate Crimes\",",
									"            \"False\",",
									"            \"http://blog.nohatespeechmovement.org/wp-content/uploads/2014/07/half-vic-lgbt.jpg\"",
									"        ].toString());",
									"    pm.expect(pm.response.json()[0].contact).to.equal(\"http://www.cruz.senate.gov/?p=email_senator\");",
									"    pm.expect(pm.response.json()[0].facebook).to.equal(\"SenatorTedCruz\");",
									"    pm.expect(data.fax).to.equal(\"202-228-3398\");",
									"    pm.expect(pm.response.json()[0].icon).to.equal(\"https://raw.githubusercontent.com/unitedstates/images/gh-pages/congress/225x275/C001098.jpg\");",
									"    pm.expect(data.linkfacebook).to.equal(\"https://www.facebook.com/SenatorTedCruz\");",
									"    pm.expect(data.linksenate).to.equal(\"https://www.cruz.senate.gov\");",
									"    pm.expect(data.linktwitter).to.equal(\"https://twitter.com/SenTedCruz?lang=en\");",
									"    pm.expect(data.memberid).to.equal(\"C001098\");",
									"    pm.expect(data.name).to.equal(\"Ted Cruz\");",
									"    pm.expect(data.office).to.equal(\"404 Russell Senate Office Building\");",
									"    pm.expect(data.party).to.equal(\"Republican\");",
									"    pm.expect(data.phone).to.equal(\"202-224-5922\");",
									"    pm.expect(data.state).to.equal(\"TX\");",
									"    pm.expect(data.termend).to.equal(\"2019\");",
									"    pm.expect(data.title).to.equal(\"Senator, 1st Class\");",
									"    pm.expect(data.twitter).to.equal(\"SenTedCruz\");",
									"    ",
									"    //pm.expect(data.map).to.equal(\"https://maps.googleapis.com/maps/api/staticmap?center=WI&zoom=5&size=600x300&maptype=roadmap&markers=color:blue%7Clabel:S%7CWI&key=AIzaSyDkjJLWEtXMs8dSDfEMGUHyXh1a5GMs0d0\");",
									"});",
									"",
									"pm.test(\"check num results\", function() {",
									"    pm.expect(pm.response.json()).to.have.lengthOf(6);",
									"});",
									"",
									"pm.test(\"check content\"), function () {",
									"    data = pm.response.text();",
									"    pm.expect(data).to.include(\"Ted Cruz\")",
									"    pm.expect(data).to.include(\"Ted Budd\")",
									"    pm.expect(data).to.include(\"Ted Deutch\")",
									"    pm.expect(data).to.include(\"Ted Lieu\")",
									"    pm.expect(data).to.include(\"Ted Poe\")",
									"    pm.expect(data).to.include(\"Ted Yoho\")",
									"}",
									"",
									"pm.test(\"check order\"), function() {",
									"    data = pm.response.json()",
									"    pm.expect(data[0].name).to.equal(\"Ted Cruz\")",
									"    pm.expect(data[1].name).to.equal(\"Ted Budd\")",
									"    pm.expect(data[2].name).to.equal(\"Ted Deutch\")",
									"    pm.expect(data[3].name).to.equal(\"Ted Lieu\")",
									"    pm.expect(data[4].name).to.equal(\"Ted Poe\")",
									"    pm.expect(data[5].name).to.equal(\"Ted Yoho\")",
									"}"
								],
								"type": "text/javascript"
							}
						}
					],
					"request": {
						"method": "GET",
						"header": [],
						"body": {
							"mode": "raw",
							"raw": ""
						},
						"url": {
							"raw": "https://api.rainbowconnection.me/v1/congress/search?phrase&name=Ted&title&state&termend&sort_by=termend&desc=\"True\"",
							"protocol": "https",
							"host": [
								"api",
								"rainbowconnection",
								"me"
							],
							"path": [
								"v1",
								"congress",
								"search"
							],
							"query": [
								{
									"key": "phrase",
									"value": null,
									"description": "phrase to search for (optional)"
								},
								{
									"key": "name",
									"value": "Ted",
									"description": "search by name of congress member (optional)"
								},
								{
									"key": "title",
									"value": null,
									"description": "search by title congress member  (optional)"
								},
								{
									"key": "state",
									"value": null,
									"description": "search by state  congress member (optional)"
								},
								{
									"key": "termend",
									"value": null,
									"description": "search by term end (optional)"
								},
								{
									"key": "sort_by",
									"value": "termend",
									"description": "choose value to sort by  (optional)"
								},
								{
									"key": "desc",
									"value": "\"True\"",
									"description": "orders results by descending when desc = True"
								}
							]
						},
						"description": "Searches for a given phrase and returns all instances that contain the given phrase. Can also search by specific fields (name, title, state, termend)\n\nTo filter results, use sort_by to designate which field to filter by. The results will be filtered in ascending order by defualt, but can also be filtered in descending order by desc = true"
					},
					"response": [
						{
							"name": "api.rainbowconnection.me/v1/congress/search",
							"originalRequest": {
								"method": "GET",
								"header": [],
								"body": {
									"mode": "raw",
									"raw": ""
								},
								"url": {
									"raw": "https://api.rainbowconnection.me/v1/congress/search?phrase&name=Ted&title&state&termend&sort_by=termend&desc=\"True\"",
									"protocol": "https",
									"host": [
										"api",
										"rainbowconnection",
										"me"
									],
									"path": [
										"v1",
										"congress",
										"search"
									],
									"query": [
										{
											"key": "phrase",
											"value": null,
											"description": "phrase to search for (optional)"
										},
										{
											"key": "name",
											"value": "Ted",
											"description": "search by name of congress member (optional)"
										},
										{
											"key": "title",
											"value": null,
											"description": "search by title congress member  (optional)"
										},
										{
											"key": "state",
											"value": null,
											"description": "search by state  congress member (optional)"
										},
										{
											"key": "termend",
											"value": null,
											"description": "search by term end (optional)"
										},
										{
											"key": "sort_by",
											"value": "termend",
											"description": "choose value to sort by  (optional)"
										},
										{
											"key": "desc",
											"value": "\"True\"",
											"description": "orders results by descending when desc = True"
										}
									]
								}
							},
							"_postman_previewlanguage": null,
							"header": null,
							"cookie": [],
							"body": "[\n\t{\n\t\tcongress_member_dict_1,\n\t\t...\n\t}\n]"
						}
					]
				}
			]
		},
		{
			"name": "Bills",
			"item": [
				{
					"name": "api.rainbowconnection.me/v1/bills/all",
					"event": [
						{
							"listen": "test",
							"script": {
								"id": "91d5507d-e140-4a64-ad8a-b455f416a588",
								"exec": [
									"",
									"pm.test(\"first entry okay\", function () {",
									"    data = pm.response.json()[0];",
									"    pm.expect(data.bill_id).to.equal(\"s411-115\");",
									"    pm.expect(data.connections.toString()).to.equal([",
									"            \"Hate Crimes\",",
									"            \"http://blog.nohatespeechmovement.org/wp-content/uploads/2014/07/half-vic-lgbt.jpg\",",
									"            \"Benjamin Cardin\",",
									"            \"https://raw.githubusercontent.com/unitedstates/images/gh-pages/congress/225x275/C000141\"",
									"        ].toString());",
									"    ",
									"    pm.expect(JSON.stringify(data.cosponsors)).to.equal(JSON.stringify([",
									"            \"Tammy Baldwin\",",
									"            \"Richard Blumenthal\",",
									"            \"Cory Booker\",",
									"            \"Sherrod Brown\",",
									"            \"Maria Cantwell\",",
									"            \"Christopher Coons\",",
									"            \"Tammy Duckworth\",",
									"            \"Richard Durbin\",",
									"            \"Al Franken\",",
									"            \"Kamala Harris\",",
									"            \"Martin Heinrich\",",
									"            \"Mazie Hirono\",",
									"            \"Patrick Leahy\",",
									"            \"Edward Markey\",",
									"            \"Robert Menendez\",",
									"            \"Jeff Merkley\",",
									"            \"Christopher Murphy\",",
									"            \"Patty Murray\",",
									"            \"Bernard Sanders\",",
									"            \"Debbie Stabenow\",",
									"            \"Tom Udall\",",
									"            \"Ron Wyden\",",
									"            \"Elizabeth Warren\",",
									"            \"Kirsten Gillibrand\",",
									"            \"Tim Kaine\",",
									"            \"Chris Van Hollen\",",
									"            \"Dianne Feinstein\",",
									"            \"Tina Smith\"",
									"        ]));",
									"        ",
									"    pm.expect(data.date).to.equal(\"2017-02-16\");",
									"    pm.expect(data.link).to.equal(\"https://www.congress.gov/bill/115th-congress/senate-bill/411\");",
									"    pm.expect(data.name).to.equal(\"A bill to eliminate racial, religious, and other discriminatory profiling by law enforcement, and for other purposes.\");",
									"    pm.expect(data.num).to.equal(\"S.411\");",
									"    ",
									"    pm.expect(JSON.stringify(data.partydata)).to.equal(JSON.stringify({",
									"            \"Democrat\":",
									"            27,",
									"            \"Independent\":",
									"            1,",
									"            \"Republican\":",
									"            0",
									"        }));",
									"    pm.expect(data.sponsor).to.equal(\"Benjamin Cardin\");",
									"    pm.expect(data.summary).to.equal(\"End Racial and Religious Profiling Act of 2017 or ERRPA This bill prohibits racial profiling by a federal, state, local, or tribal law enforcement agency or agent. The term \\\"racial profiling\\\" includes the practice of relying on actual or perceived race, ethnicity, national origin, religion, gender, gender identify, or sexual orientation in making a routine or spontaneous law enforcement decision. The Department of Justice (DOJ), or an individual injured by racial profiling, may bring a civil action to enforce the prohibition. The bill requires federal law enforcement agencies to maintain policies and procedures to eliminate racial profiling, including training on racial profiling issues, the collection of data, and procedures for handling complaints. Additionally, a state or unit of local government that receives grant funds under the Edward Byrne Memorial Justice Assistance Grant program or Community Oriented Policing Services program must maintain policies and procedures to eliminate racial profiling, including training on racial profiling issues, the collection of data, and participation in an administrative complaint procedure or independent audit program. DOJ must withhold or reduce grant funds from a state or unit of local government that fails to comply.  The bill authorizes grants to develop and implement: (1) programs to collect data on the percentage of stops and searches in which a law enforcement officer finds drugs, a gun, or something else that leads to an arrest; and (2) best practice devices and systems to eliminate racial profiling. DOJ must report annually on racial profiling by law enforcement agencies.\");",
									"    ",
									"        ",
									"});",
									"",
									"pm.test(\"check num results\", function () {",
									"    pm.expect(pm.response.json()).to.have.lengthOf(33);",
									"});"
								],
								"type": "text/javascript"
							}
						}
					],
					"protocolProfileBehavior": {
						"disableBodyPruning": true
					},
					"request": {
						"method": "GET",
						"header": [],
						"body": {
							"mode": "raw",
							"raw": ""
						},
						"url": {
							"raw": "https://api.rainbowconnection.me/v1/bills/all",
							"protocol": "https",
							"host": [
								"api",
								"rainbowconnection",
								"me"
							],
							"path": [
								"v1",
								"bills",
								"all"
							]
						},
						"description": "Returns a JSON string with all bills"
					},
					"response": [
						{
							"name": "Default",
							"originalRequest": {
								"method": "GET",
								"header": [],
								"body": {
									"mode": "raw",
									"raw": ""
								},
								"url": {
									"raw": "https://api.rainbowconnection.me/v1/bills/all",
									"protocol": "https",
									"host": [
										"api",
										"rainbowconnection",
										"me"
									],
									"path": [
										"v1",
										"bills",
										"all"
									]
								}
							},
							"code": 200,
							"_postman_previewlanguage": "json",
							"header": null,
							"cookie": [],
							"body": "[\n\t{\n\t\tbill_dict_1,\n\t\t...\n\t}\n]"
						}
					]
				},
				{
					"name": "api.rainbowconnection.me/v1/bills",
					"event": [
						{
							"listen": "test",
							"script": {
								"id": "f1af8125-f90b-40e2-8d21-f2706da05cf4",
								"exec": [
									"",
									"",
									"pm.test(\"first entry okay\", function () {",
									"    data = pm.response.json()[0];",
									"    pm.expect(data.bill_id).to.equal(\"s411-115\");",
									"    pm.expect(data.connections.toString()).to.equal([",
									"            \"Hate Crimes\",",
									"            \"http://blog.nohatespeechmovement.org/wp-content/uploads/2014/07/half-vic-lgbt.jpg\",",
									"            \"Benjamin Cardin\",",
									"            \"https://raw.githubusercontent.com/unitedstates/images/gh-pages/congress/225x275/C000141\"",
									"        ].toString());",
									"    ",
									"    pm.expect(JSON.stringify(data.cosponsors)).to.equal(JSON.stringify([",
									"            \"Tammy Baldwin\",",
									"            \"Richard Blumenthal\",",
									"            \"Cory Booker\",",
									"            \"Sherrod Brown\",",
									"            \"Maria Cantwell\",",
									"            \"Christopher Coons\",",
									"            \"Tammy Duckworth\",",
									"            \"Richard Durbin\",",
									"            \"Al Franken\",",
									"            \"Kamala Harris\",",
									"            \"Martin Heinrich\",",
									"            \"Mazie Hirono\",",
									"            \"Patrick Leahy\",",
									"            \"Edward Markey\",",
									"            \"Robert Menendez\",",
									"            \"Jeff Merkley\",",
									"            \"Christopher Murphy\",",
									"            \"Patty Murray\",",
									"            \"Bernard Sanders\",",
									"            \"Debbie Stabenow\",",
									"            \"Tom Udall\",",
									"            \"Ron Wyden\",",
									"            \"Elizabeth Warren\",",
									"            \"Kirsten Gillibrand\",",
									"            \"Tim Kaine\",",
									"            \"Chris Van Hollen\",",
									"            \"Dianne Feinstein\",",
									"            \"Tina Smith\"",
									"        ]));",
									"        ",
									"    pm.expect(data.date).to.equal(\"2017-02-16\");",
									"    pm.expect(data.link).to.equal(\"https://www.congress.gov/bill/115th-congress/senate-bill/411\");",
									"    pm.expect(data.name).to.equal(\"A bill to eliminate racial, religious, and other discriminatory profiling by law enforcement, and for other purposes.\");",
									"    pm.expect(data.num).to.equal(\"S.411\");",
									"    ",
									"    pm.expect(JSON.stringify(data.partydata)).to.equal(JSON.stringify({",
									"            \"Democrat\":",
									"            27,",
									"            \"Independent\":",
									"            1,",
									"            \"Republican\":",
									"            0",
									"        }));",
									"    pm.expect(data.sponsor).to.equal(\"Benjamin Cardin\");",
									"    pm.expect(data.summary).to.equal(\"End Racial and Religious Profiling Act of 2017 or ERRPA This bill prohibits racial profiling by a federal, state, local, or tribal law enforcement agency or agent. The term \\\"racial profiling\\\" includes the practice of relying on actual or perceived race, ethnicity, national origin, religion, gender, gender identify, or sexual orientation in making a routine or spontaneous law enforcement decision. The Department of Justice (DOJ), or an individual injured by racial profiling, may bring a civil action to enforce the prohibition. The bill requires federal law enforcement agencies to maintain policies and procedures to eliminate racial profiling, including training on racial profiling issues, the collection of data, and procedures for handling complaints. Additionally, a state or unit of local government that receives grant funds under the Edward Byrne Memorial Justice Assistance Grant program or Community Oriented Policing Services program must maintain policies and procedures to eliminate racial profiling, including training on racial profiling issues, the collection of data, and participation in an administrative complaint procedure or independent audit program. DOJ must withhold or reduce grant funds from a state or unit of local government that fails to comply.  The bill authorizes grants to develop and implement: (1) programs to collect data on the percentage of stops and searches in which a law enforcement officer finds drugs, a gun, or something else that leads to an arrest; and (2) best practice devices and systems to eliminate racial profiling. DOJ must report annually on racial profiling by law enforcement agencies.\");",
									"    ",
									"        ",
									"});",
									"",
									"pm.test(\"check num results\", function () {",
									"   pm.expect(pm.response.json()).to.have.lengthOf(1);",
									"});",
									""
								],
								"type": "text/javascript"
							}
						}
					],
					"protocolProfileBehavior": {
						"disableBodyPruning": true
					},
					"request": {
						"method": "GET",
						"header": [],
						"body": {
							"mode": "raw",
							"raw": ""
						},
						"url": {
							"raw": "https://api.rainbowconnection.me/v1/bills?name=S.411",
							"protocol": "https",
							"host": [
								"api",
								"rainbowconnection",
								"me"
							],
							"path": [
								"v1",
								"bills"
							],
							"query": [
								{
									"key": "name",
									"value": "S.411"
								}
							]
						},
						"description": "Returns a JSON string of a single bill specified by name = <bill number> \n\nIf no name is given, all bills are returned"
					},
					"response": [
						{
							"name": "Default",
							"originalRequest": {
								"method": "GET",
								"header": [],
								"body": {
									"mode": "raw",
									"raw": ""
								},
								"url": {
									"raw": "https://api.rainbowconnection.me/v1/bills/?name=<bill-number>",
									"protocol": "https",
									"host": [
										"api",
										"rainbowconnection",
										"me"
									],
									"path": [
										"v1",
										"bills",
										""
									],
									"query": [
										{
											"key": "name",
											"value": "<bill-number>"
										}
									]
								}
							},
							"code": 200,
							"_postman_previewlanguage": "json",
							"header": null,
							"cookie": [],
							"body": "[\n\t{\n        \"connections\": string[],\n        \"cosponsors\": string[],\n        \"date\": string,\n        \"link\": string,\n        \"name\": string,\n        \"num\": string,\n        \"partyData\": int[],\n        \"picture\": string,\n        \"sponsor\": string,\n        \"summary\": string\n    }\t\n]"
						}
					]
				},
				{
					"name": "api.rainbowconnection.me/v1/bills/search",
					"event": [
						{
							"listen": "test",
							"script": {
								"id": "049d64a4-76e6-4ca9-a4d0-0c5fc4e8e1cb",
								"exec": [
									"pm.test(\"first entry okay\", function () {",
									"    data = pm.response.json()[0];",
									"    pm.expect(data.bill_id).to.equal(\"s2572-115\");",
									"    pm.expect(data.connections.toString()).to.equal([",
									"            \"School Anti-Bullying\",",
									"            \"https://www.aclu.org/sites/default/files/styles/blog_main_wide_580x384/public/field_image/web16-blog-lgbt-schoolbus-1160x768.jpg?itok=w00UK_J4\",",
									"            \"Bob Casey\",",
									"            \"https://raw.githubusercontent.com/unitedstates/images/gh-pages/congress/225x275/C001070\"",
									"        ].toString());",
									"    ",
									"    pm.expect(JSON.stringify(data.cosponsors)).to.equal(JSON.stringify([",
									"            \"Elizabeth Warren\",",
									"            \"Sheldon Whitehouse\",",
									"            \"Michael Bennet\",",
									"            \"Mazie Hirono\",",
									"            \"Heidi Heitkamp\",",
									"            \"Debbie Stabenow\",",
									"            \"Amy Klobuchar\",",
									"            \"Jeanne Shaheen\",",
									"            \"Kamala Harris\",",
									"            \"Tim Kaine\",",
									"            \"Catherine Cortez Masto\",",
									"            \"Cory Booker\",",
									"            \"Richard Blumenthal\",",
									"            \"Dianne Feinstein\",",
									"            \"Tammy Baldwin\",",
									"            \"Patty Murray\",",
									"            \"Kirsten Gillibrand\",",
									"            \"Christopher Coons\",",
									"            \"Ron Wyden\",",
									"            \"Sherrod Brown\",",
									"            \"Mark Warner\",",
									"            \"Maria Cantwell\",",
									"            \"Thomas Carper\",",
									"            \"Jack Reed\",",
									"            \"Tina Smith\",",
									"            \"Edward Markey\",",
									"            \"Patrick Leahy\",",
									"            \"Margaret Hassan\",",
									"            \"Bill Nelson\",",
									"            \"Benjamin Cardin\",",
									"            \"Gary Peters\",",
									"            \"Richard Durbin\",",
									"            \"Bernard Sanders\",",
									"            \"Chris Van Hollen\",",
									"            \"Jeff Merkley\",",
									"            \"Claire McCaskill\",",
									"            \"Christopher Murphy\",",
									"            \"Tammy Duckworth\",",
									"            \"Doug Jones\",",
									"            \"Robert Menendez\",",
									"            \"Martin Heinrich\",",
									"            \"Tom Udall\"",
									"        ]));",
									"        ",
									"    pm.expect(data.date).to.equal(\"2018-03-20\");",
									"    pm.expect(data.link).to.equal(\"https://www.congress.gov/bill/115th-congress/senate-bill/2572\");",
									"    pm.expect(data.name).to.equal(\"A bill to amend the Elementary and Secondary Education Act of 1965 to address and take action to prevent bullying and harassment of students.\");",
									"    pm.expect(data.num).to.equal(\"S.2572\");",
									"    ",
									"    pm.expect(JSON.stringify(data.partydata)).to.equal(JSON.stringify({",
									"            \"Democrat\": 41,",
									"            \"Independent\": 1,",
									"            \"Republican\": 0",
									"        }));",
									"    pm.expect(data.sponsor).to.equal(\"Bob Casey\");",
									"    pm.expect(data.summary).to.equal(\"Safe Schools Improvement Act of 2018 This bill amends the Elementary and Secondary Education Act of 1965 to require states to direct their local educational agencies (LEAs) to establish policies that prevent and prohibit conduct, including bullying and harassment, that is sufficiently severe, persistent, or pervasive to: (1) limit students' ability to participate in, or benefit from, school programs; or (2) create a hostile or abusive educational environment that adversely affects students' education. LEAs shall also provide: (1) students, parents, and educational professionals with annual notice of the conduct prohibited in their disciplinary policies; (2) students and parents with grievance procedures that target such conduct; and (3) the public with annual data on the incidence and frequency of that conduct at the school and LEA level. The Department of Education must conduct, and report on, an independent biennial evaluation of programs and policies to combat bullying and harassment in elementary and secondary schools. The National Center for Education Statistics shall collect state data to determine the incidence and frequency of the conduct prohibited by LEA disciplinary policies. \");",
									"    ",
									"        ",
									"});",
									"",
									"pm.test(\"check num results\", function () {",
									"   pm.expect(pm.response.json()).to.have.lengthOf(2);",
									"});",
									"",
									"pm.test(\"check content\"), function () {",
									"    data = pm.response.text();",
									"    pm.expect(data).to.include(\"s2572-115\")",
									"    pm.expect(data).to.include(\"hr1957-115\")",
									"}",
									"",
									"pm.test(\"verify sorting\"), function () {",
									"    data = pm.response.json();",
									"    pm.expect(data[0].date).to.equal(\"2018-03-20\")",
									"    pm.expect(data[1].date).to.equal(\"2017-04-05\")",
									"}"
								],
								"type": "text/javascript"
							}
						}
					],
					"request": {
						"method": "GET",
						"header": [],
						"body": {
							"mode": "raw",
							"raw": ""
						},
						"url": {
							"raw": "api.rainbowconnection.me/v1/bills/search?phrase=bully&num&date&sponsor&sort_by=date&desc=True",
							"host": [
								"api",
								"rainbowconnection",
								"me"
							],
							"path": [
								"v1",
								"bills",
								"search"
							],
							"query": [
								{
									"key": "phrase",
									"value": "bully",
									"description": "phrase to search for (optional)"
								},
								{
									"key": "num",
									"value": null,
									"description": "search by bill number (optional)"
								},
								{
									"key": "date",
									"value": null,
									"description": "search by date introduced (optional)"
								},
								{
									"key": "sponsor",
									"value": null,
									"description": "search by main sponsor (optional)"
								},
								{
									"key": "sort_by",
									"value": "date",
									"description": "choose value to sort results by (optional)"
								},
								{
									"key": "desc",
									"value": "True",
									"description": "orders results by descending when desc = True"
								}
							]
						},
						"description": "Searches for a given phrase and returns all instances that contain the given phrase. Can also search by specific fields (num, date, sponsor)\n\nTo filter results, use sort_by to designate which field to filter by. The results will be filtered in ascending order by defualt, but can also be filtered in descending order by desc = true"
					},
					"response": [
						{
							"name": "api.rainbowconnection.me/v1/bills/search",
							"originalRequest": {
								"method": "GET",
								"header": [],
								"body": {
									"mode": "raw",
									"raw": ""
								},
								"url": {
									"raw": "api.rainbowconnection.me/v1/bills/search?phrase&num&date&sponsor&sort_by&desc",
									"host": [
										"api",
										"rainbowconnection",
										"me"
									],
									"path": [
										"v1",
										"bills",
										"search"
									],
									"query": [
										{
											"key": "phrase",
											"value": null,
											"description": "phrase to search for (optional)"
										},
										{
											"key": "num",
											"value": null,
											"description": "search by bill number (optional)"
										},
										{
											"key": "date",
											"value": null,
											"description": "search by date introduced (optional)"
										},
										{
											"key": "sponsor",
											"value": null,
											"description": "search by main ponsor (optional)"
										},
										{
											"key": "sort_by",
											"value": null,
											"description": "choose value to sort results by (optional)"
										},
										{
											"key": "desc",
											"value": null,
											"description": "orders results by descending when desc = True"
										}
									]
								}
							},
							"_postman_previewlanguage": null,
							"header": null,
							"cookie": [],
							"body": "[\n\t{\n\t\tbill_dict_1,\n\t\t...\n\t}\n]"
						}
					]
				}
			]
		},
		{
			"name": "Issues",
			"item": [
				{
					"name": "api.rainbowconnection.me/v1/issues/all",
					"event": [
						{
							"listen": "test",
							"script": {
								"id": "501275d3-3a49-4e08-9e3e-23d2da8b8aa6",
								"exec": [
									"pm.test(\"check first result\", function () {",
									"    data = pm.response.json()[0]",
									"    ",
									"    ",
									"    pm.expect(data.connections.toString()).to.equal([",
									"        \"S.1006\",",
									"        \"default\",",
									"        \"Jeff Merkley\",",
									"        \"https://raw.githubusercontent.com/unitedstates/images/gh-pages/congress/225x275/M001176\"",
									"        ].toString());",
									"    pm.expect(data.date).to.equal(\"N/A\");",
									"    pm.expect(data.des).to.equal(\"Public accommodations refers to both governmental entities and private businesses that provide services to the general public such as restaurants, movie theaters, libraries and shops. It does not encompass private clubs that have a membership or dues process.\");",
									"    pm.expect(data.fedprotect).to.equal(\"No\");",
									"    pm.expect(data.icon).to.equal(\"https://upload.wikimedia.org/wikipedia/commons/thumb/c/ce/Stonewall_Inn_5_pride_weekend_2016.jpg/287px-Stonewall_Inn_5_pride_weekend_2016.jpg\");",
									"    pm.expect(data.map).to.equal(\"https://www.hrc.org/state-maps/public-accomodations/embed/\");",
									"    pm.expect(data.name).to.equal(\"Public Accomodations\");",
									"    pm.expect(data.numstates).to.equal(\"21\");",
									"});",
									"",
									"",
									"pm.test(\"check num results\", function () {",
									"    pm.expect(pm.response.json()).to.have.lengthOf(10);",
									"});"
								],
								"type": "text/javascript"
							}
						}
					],
					"protocolProfileBehavior": {
						"disableBodyPruning": true
					},
					"request": {
						"method": "GET",
						"header": [],
						"body": {
							"mode": "raw",
							"raw": ""
						},
						"url": {
							"raw": "https://api.rainbowconnection.me/v1/issues/all",
							"protocol": "https",
							"host": [
								"api",
								"rainbowconnection",
								"me"
							],
							"path": [
								"v1",
								"issues",
								"all"
							]
						},
						"description": "Returns a JSON string with all issues"
					},
					"response": [
						{
							"name": "Default",
							"originalRequest": {
								"method": "GET",
								"header": [],
								"body": {
									"mode": "raw",
									"raw": ""
								},
								"url": {
									"raw": "https://api.rainbowconnection.me/v1/issues/all",
									"protocol": "https",
									"host": [
										"api",
										"rainbowconnection",
										"me"
									],
									"path": [
										"v1",
										"issues",
										"all"
									]
								}
							},
							"code": 200,
							"_postman_previewlanguage": "json",
							"header": null,
							"cookie": [],
							"body": "{\n\tissue_dict_1,\n\t...\n}"
						}
					]
				},
				{
					"name": "api.rainbowconnection.me/v1/issues/",
					"event": [
						{
							"listen": "test",
							"script": {
								"id": "f9c41d12-be08-47d3-b0e9-11f5befe100c",
								"exec": [
									"",
									"",
									"pm.test(\"check first result\", function () {",
									"    data = pm.response.json()[0]",
									"    ",
									"    pm.expect(data.connections.toString()).to.equal([",
									"        \"S.1328\",",
									"        \"default\",",
									"        \"Tim Kaine\",",
									"        \"https://raw.githubusercontent.com/unitedstates/images/gh-pages/congress/225x275/K000384\"].toString());",
									"    pm.expect(data.date).to.equal(\"N/A\");",
									"    pm.expect(data.des).to.equal(\"The Office of Fair Housing and Equal Opportunity (FHEO) is an agency within the United States Department of Housing and Urban Development. FHEO is responsible for administering and enforcing federal fair housing laws and establishing policies that make sure all Americans have equal access to the housing of their choice. Housing discrimination refers to discrimination against potential or current tenants by landlords. In the United States, there is no federal law against such discrimination on the basis of sexual orientation or gender identity, but at least twenty-two states and many major cities have enacted laws prohibiting it. See, for example, Washington House Bill 2661.\");",
									"    pm.expect(data.fedprotect).to.equal(\"No\");",
									"    pm.expect(data.icon).to.equal(\"https://www.nextavenue.org/wp-content/uploads/2015/06/Same-Sex-Housing-Discrimination-489649257-179228228-750x485.jpg\");",
									"    pm.expect(data.map).to.equal(\"https://upload.wikimedia.org/wikipedia/commons/0/02/US_LGBT_housing_discrimination.svg\");",
									"    pm.expect(data.name).to.equal(\"Housing\");",
									"    pm.expect(data.numstates).to.equal(\"22\");",
									"});",
									"",
									"pm.test(\"check num results\", function () {",
									"    pm.expect(pm.response.json()).to.have.lengthOf(1);",
									"});"
								],
								"type": "text/javascript"
							}
						}
					],
					"protocolProfileBehavior": {
						"disableBodyPruning": true
					},
					"request": {
						"method": "GET",
						"header": [],
						"body": {
							"mode": "raw",
							"raw": ""
						},
						"url": {
							"raw": "https://api.rainbowconnection.me/v1/issues?name=Housing",
							"protocol": "https",
							"host": [
								"api",
								"rainbowconnection",
								"me"
							],
							"path": [
								"v1",
								"issues"
							],
							"query": [
								{
									"key": "name",
									"value": "Housing"
								}
							]
						},
						"description": "Returns a JSON string of a single issue specified by name = <issue name>\n\nIf no name is specified, it returns all issues"
					},
					"response": [
						{
							"name": "Default",
							"originalRequest": {
								"method": "GET",
								"header": [],
								"body": {
									"mode": "raw",
									"raw": ""
								},
								"url": {
									"raw": "https://api.rainbowconnection.me/v1/issues/?name=<issue-name>",
									"protocol": "https",
									"host": [
										"api",
										"rainbowconnection",
										"me"
									],
									"path": [
										"v1",
										"issues",
										""
									],
									"query": [
										{
											"key": "name",
											"value": "<issue-name>"
										}
									]
								}
							},
							"code": 200,
							"_postman_previewlanguage": "json",
							"header": null,
							"cookie": [],
							"body": "[\n    {\n        \"connections\": string[],\n        \"date\": string,\n        \"desc\": string,\n        \"fedprotect\": string,\n        \"icon\": string,\n        \"map\": string,\n        \"name\": string,\n        \"numstates\": string\n    }\n]"
						}
					]
				},
				{
					"name": "api.rainbowconnection.me/v1/issues/search",
					"event": [
						{
							"listen": "test",
							"script": {
								"id": "088cb0b5-8de6-42d8-b5e7-db44ca23e611",
								"exec": [
									"",
									"",
									"pm.test(\"check first result\", function () {",
									"    data = pm.response.json()[0]",
									"    ",
									"    pm.expect(data.connections.toString()).to.equal([",
									"        \"S.2572\",",
									"        \"default\",",
									"        \"Bob Casey\",",
									"        \"https://raw.githubusercontent.com/unitedstates/images/gh-pages/congress/225x275/C001070\"].toString());",
									"    pm.expect(data.date).to.equal(\"N/A\");",
									"    pm.expect(data.des).to.equal(\"Many states explicitly address harassment and/or bullying of elementary and high school students, though not all are LGBTQ inclusive. These protections can be in the form of statutory law, regulation or ethical codes of conduct for teachers. The states that explicitly address these issues for LGBTQ students are as follows.\");",
									"    pm.expect(data.fedprotect).to.equal(\"No\");",
									"    pm.expect(data.icon).to.equal(\"https://www.aclu.org/sites/default/files/styles/blog_main_wide_580x384/public/field_image/web16-blog-lgbt-schoolbus-1160x768.jpg?itok=w00UK_J4\");",
									"    pm.expect(data.map).to.equal(\"https://www.hrc.org/state-maps/anti-bullying/embed/\");",
									"    pm.expect(data.name).to.equal(\"School Anti-Bullying\");",
									"    pm.expect(data.numstates).to.equal(\"27\");",
									"});",
									"",
									"pm.test(\"check num results\", function () {",
									"    pm.expect(pm.response.json()).to.have.lengthOf(2);",
									"});",
									"",
									"pm.test(\"check content\"), function () {",
									"    data = pm.response.text();",
									"    pm.expect(data).to.include(\"Education\")",
									"    pm.expect(data).to.include(\"School Anti-Bullying\")",
									"}",
									"",
									"pm.test(\"verify sorting\"), function () {",
									"    data = pm.response.json();",
									"    pm.expect(data[0].numstates).to.equal(27)",
									"    pm.expect(data[1].numstates).to.equal(17)",
									"}"
								],
								"type": "text/javascript"
							}
						}
					],
					"request": {
						"method": "GET",
						"header": [],
						"body": {
							"mode": "raw",
							"raw": ""
						},
						"url": {
							"raw": "api.rainbowconnection.me/v1/issues/search?phrase=school&name&fedProtect&date&numStates&des&sort_by=numStates&desc=True",
							"host": [
								"api",
								"rainbowconnection",
								"me"
							],
							"path": [
								"v1",
								"issues",
								"search"
							],
							"query": [
								{
									"key": "phrase",
									"value": "school",
									"description": "phrase to search for (optional)"
								},
								{
									"key": "name",
									"value": null,
									"description": "search by issue name (optional)"
								},
								{
									"key": "fedProtect",
									"value": null,
									"description": "search by federally protected/ not federally protected (boolean) (optional)"
								},
								{
									"key": "date",
									"value": null,
									"description": "search by date (optional)"
								},
								{
									"key": "numStates",
									"value": null,
									"description": "search by number of states protected (optional)"
								},
								{
									"key": "des",
									"value": null,
									"description": "search by issue description (optional)"
								},
								{
									"key": "sort_by",
									"value": "numStates",
									"description": "choose value to sort results by (optional)\n\n"
								},
								{
									"key": "desc",
									"value": "True",
									"description": "\norders results by descending when desc = True"
								}
							]
						},
						"description": "Searches for a given phrase and returns all instances that contain the given phrase. Can also search by specific fields (name, fedProtect, date, numStates, des, sort_by)\n\nTo filter results, use sort_by to designate which field to filter by. The results will be filtered in ascending order by defualt, but can also be filtered in descending order by desc = true"
					},
					"response": [
						{
							"name": "api.rainbowconnection.me/v1/issues/search",
							"originalRequest": {
								"method": "GET",
								"header": [],
								"body": {
									"mode": "raw",
									"raw": ""
								},
								"url": {
									"raw": "api.rainbowconnection.me/v1/issues/search?phrase&name&fedProtect&date&numStates&des&sort_by&desc",
									"host": [
										"api",
										"rainbowconnection",
										"me"
									],
									"path": [
										"v1",
										"issues",
										"search"
									],
									"query": [
										{
											"key": "phrase",
											"value": null,
											"description": "phrase to search for (optional)"
										},
										{
											"key": "name",
											"value": null,
											"description": "search by issue name (optional)"
										},
										{
											"key": "fedProtect",
											"value": null,
											"description": "search by federally protected/ not federally protected (boolean) (optional)"
										},
										{
											"key": "date",
											"value": null,
											"description": "search by date (optional)"
										},
										{
											"key": "numStates",
											"value": null,
											"description": "search by number of states protected (optional)"
										},
										{
											"key": "des",
											"value": null,
											"description": "search by issue description (optional)"
										},
										{
											"key": "sort_by",
											"value": null,
											"description": "choose value to sort results by (optional)\n\n"
										},
										{
											"key": "desc",
											"value": null,
											"description": "\norders results by descending when desc = True"
										}
									]
								}
							},
							"_postman_previewlanguage": null,
							"header": null,
							"cookie": [],
							"body": "{\n\tissue_dict_1,\n\t...\n}"
						}
					]
				}
			]
		}
	],
	"event": [
		{
			"listen": "prerequest",
			"script": {
				"id": "1eee864b-278d-4a6c-8093-5df33476185e",
				"type": "text/javascript",
				"exec": [
					""
				]
			}
		},
		{
			"listen": "test",
			"script": {
				"id": "7323aaba-529b-4405-a40d-f0223ae58995",
				"type": "text/javascript",
				"exec": [
					"pm.test(\"response is ok\", function() {",
					"    pm.response.to.have.status(200);",
					"});",
					"",
					"pm.test(\"response must be valid and have a body\", function() {",
					"    // assert that the status code is 200",
					"    pm.response.to.be.ok;",
					"    pm.response.to.be.withBody;",
					"    pm.response.to.be.json;",
					"});"
				]
			}
		}
	]
}